HW-sq/TimeDiagram.vcd
$date
	Mon Nov 27 04:06:09 2017
$end
$version
	Icarus Verilog
$end
$timescale
	1s
$end
$scope module car_light_stimulus $end
$var wire 3 ! light_right [2:0] $end
$var wire 3 " light_left [2:0] $end
$var reg 1 # E $end
$var reg 1 $ clk $end
$var reg 1 % left $end
$var reg 1 & right $end
$scope module car1 $end
$var wire 1 # E $end
$var wire 1 $ clk $end
$var wire 1 ' clk_left $end
$var wire 1 ( clk_right $end
$var wire 1 % left $end
$var wire 1 ) or_clk_out_1 $end
$var wire 1 * or_clk_out_2 $end
$var wire 1 + re1 $end
$var wire 1 , re2 $end
$var wire 1 & right $end
$var wire 3 - light_right [2:0] $end
$var wire 3 . light_left [2:0] $end
$scope module light_bulb_left $end
$var wire 1 ' clk $end
$var wire 1 + reset $end
$var wire 1 / t $end
$var wire 1 0 q1 $end
$var wire 1 1 q0 $end
$var wire 3 2 q [2:0] $end
$scope module t_ff1 $end
$var wire 1 ' clk $end
$var wire 1 + reset $end
$var wire 1 / t $end
$var reg 1 1 q $end
$upscope $end
$scope module t_ff2 $end
$var wire 1 ' clk $end
$var wire 1 + reset $end
$var wire 1 1 t $end
$var reg 1 0 q $end
$upscope $end
$upscope $end
$scope module light_bulb_right $end
$var wire 1 ( clk $end
$var wire 1 , reset $end
$var wire 1 3 t $end
$var wire 1 4 q1 $end
$var wire 1 5 q0 $end
$var wire 3 6 q [2:0] $end
$scope module t_ff1 $end
$var wire 1 ( clk $end
$var wire 1 , reset $end
$var wire 1 3 t $end
$var reg 1 5 q $end
$upscope $end
$scope module t_ff2 $end
$var wire 1 ( clk $end
$var wire 1 , reset $end
$var wire 1 5 t $end
$var reg 1 4 q $end
$upscope $end
$upscope $end
$upscope $end
$upscope $end
$enddefinitions $end
#0
$dumpvars
b0 6
05
04
13
b0 2
01
00
1/
b0 .
b0 -
1,
1+
0*
0)
0(
0'
0&
0%
0$
0#
b0 "
b0 !
$end
#5
1$
#10
0+
1)
0$
1%
#15
b1 "
b1 .
b1 2
11
1'
1$
#20
0'
0$
#25
01
b11 "
b11 .
b11 2
10
1'
1$
#30
0'
0$
#35
b111 "
b111 .
b111 2
11
1'
1$
#40
0'
0$
#45
01
b0 "
b0 .
b0 2
00
1'
1$
#50
0'
0,
1*
1+
0)
0$
1&
0%
#55
b1 !
b1 -
b1 6
15
1(
1$
#60
0(
0$
#65
05
b11 !
b11 -
b11 6
14
1(
1$
#70
0(
0$
#75
b111 !
b111 -
b111 6
15
1(
1$
#80
0(
0$
#85
05
b0 !
b0 -
b0 6
04
1(
1$
#90
0(
0+
1)
0$
1%
#95
b1 "
b1 .
b1 2
b1 !
b1 -
b1 6
11
15
1'
1(
1$
#100
0'
0(
0$
#105
b11 "
b11 .
b11 2
10
01
05
b11 !
b11 -
b11 6
14
1'
1(
1$
#110
0'
0(
0$
#115
b111 "
b111 .
b111 2
b111 !
b111 -
b111 6
11
15
1'
1(
1$
#120
0'
0(
0$
#125
b0 "
b0 .
b0 2
00
01
05
b0 !
b0 -
b0 6
04
1'
1(
1$
#130
0'
0(
1,
0*
1+
0)
0$
0&
0%
#135
1$
#140
0+
1)
0,
1*
0$
1#
#145
b1 "
b1 .
b1 2
b1 !
b1 -
b1 6
11
15
1'
1(
1$
#150
0'
0(
0$
#155
01
b11 "
b11 .
b11 2
10
b11 !
b11 -
b11 6
14
05
1'
1(
1$
#160
0'
0(
0$
#165
b111 "
b111 .
b111 2
b111 !
b111 -
b111 6
11
15
1'
1(
1$
#170
0'
0(
0$
#175
01
b0 "
b0 .
b0 2
00
b0 !
b0 -
b0 6
04
05
1'
1(
1$
#180
0'
0(
0$
#185
b1 "
b1 .
b1 2
b1 !
b1 -
b1 6
11
15
1'
1(
1$
#190
0'
0(
0$
#195
01
b11 "
b11 .
b11 2
10
b11 !
b11 -
b11 6
14
05
1'
1(
1$
#200
0'
0(
0$
#205
b111 "
b111 .
b111 2
b111 !
b111 -
b111 6
11
15
1'
1(
1$
#210
0'
0(
0$
#215
01
b0 "
b0 .
b0 2
00
b0 !
b0 -
b0 6
04
05
1'
1(
1$
#220
0'
0(
0$
#225
b1 "
b1 .
b1 2
b1 !
b1 -
b1 6
11
15
1'
1(
1$
#230
0'
0(
0$
#235
01
b11 "
b11 .
b11 2
10
b11 !
b11 -
b11 6
14
05
1'
1(
1$
#240
0'
0(
0$
#245
b111 "
b111 .
b111 2
b111 !
b111 -
b111 6
11
15
1'
1(
1$
